Nora Elhaissouni - Example Analysis
…
The intended audience is someone who is interested in penguins potentially with a focus on penguin body size measurements. Knowing this information could lead to a better understanding of how certain body measurements of animals may impact their physical health and life expectancy. With this limited data, this is the preliminary step to more impactful research as I am analyzing trends related to penguin species, sex, and body size measurements. More information on the importance of the topic is available here (Trivelpiece et al. 1987).

Questions

How does body mass vary between sex for the Chinstrap and Adelie species? For each of these two species and their sex, what is the relationship between bill length and body mass? What is the relationship between flipper length and body mass?

Count Analysis: The Data

Show the code

# Filter the data to remove the NA values, and only have the Chinstrap and Adelie species. Next, only select the columns needed for the analysis
penguins_filtered<- penguins %>% filter(species %in% c("Chinstrap", "Adelie")) %>% na.omit() %>% select(species, sex, body_mass_g, bill_length_mm, flipper_length_mm)
penguins_filtered

# A tibble: 214 × 5
   species sex    body_mass_g bill_length_mm flipper_length_mm
   <fct>   <fct>        <int>          <dbl>             <int>
 1 Adelie  male          3750           39.1               181
 2 Adelie  female        3800           39.5               186
 3 Adelie  female        3250           40.3               195
 4 Adelie  female        3450           36.7               193
 5 Adelie  male          3650           39.3               190
 6 Adelie  female        3625           38.9               181
 7 Adelie  male          4675           39.2               195
 8 Adelie  female        3200           41.1               182
 9 Adelie  male          3800           38.6               191
10 Adelie  male          4400           34.6               198
# ℹ 204 more rows
…
